%YAML 1.1
%TAG !u! tag:unity3d.com,2011:
--- !u!114 &11400000
MonoBehaviour:
  m_ObjectHideFlags: 0
  m_CorrespondingSourceObject: {fileID: 0}
  m_PrefabInstance: {fileID: 0}
  m_PrefabAsset: {fileID: 0}
  m_GameObject: {fileID: 0}
  m_Enabled: 1
  m_EditorHideFlags: 0
  m_Script: {fileID: -1893448595, guid: a040fb66244a7f54289914d98ea4ef7d, type: 3}
  m_Name: MenuController
  m_EditorClassIdentifier: 
  _data:
    _json: '{"graph":{"variables":{"collection":{"$content":[],"$version":"A"},"$version":"A"},"controlInputDefinitions":[],"controlOutputDefinitions":[],"valueInputDefinitions":[],"valueOutputDefinitions":[],"title":null,"summary":null,"pan":{"x":-119.0,"y":-128.0},"zoom":1.0,"elements":[{"chainable":false,"member":{"name":"Quit","parameterTypes":[],"targetType":"UnityEngine.Application","targetTypeName":"UnityEngine.Application","$version":"A"},"defaultValues":{},"position":{"x":-81.0,"y":-198.0},"guid":"b62f2c9f-1c54-40df-a003-b1a88f41bbe5","$version":"A","$type":"Bolt.InvokeMember","$id":"9"},{"coroutine":false,"defaultValues":{"name":{"$content":"OnBtnExit","$type":"System.String"}},"position":{"x":-288.0,"y":-196.0},"guid":"dbaf81e3-8b64-465b-bc64-251a1242b7bc","$version":"A","$type":"Bolt.BoltUnityEvent","$id":"12"},{"sourceUnit":{"$ref":"12"},"sourceKey":"trigger","destinationUnit":{"$ref":"9"},"destinationKey":"enter","guid":"69d28d3d-d444-4c65-8974-62ef84839fe2","$type":"Bolt.ControlConnection"}],"$version":"A"}}'
    _objectReferences: []
